{
  "apiUrl": "https://cs.sandbox.etelecom.vn",
  "voipUrl": "210.211.106.202",
  "appName": "eTelecom CS",
  "videoCall": true,
  "features": {
    "ticket": true,
    "order": false
  },
  "primaryColor": {
    "50": "0xFFebfae7",
    "100": "0xFFe5f8eb",
    "200": "0xFFc0edcd",
    "300": "0xFF95e1ad",
    "400": "0xFF63d68b",
    "default500": "0xFF2fcc70",
    "600": "0xFF00c256",
    "700": "0xFF00b24c",
    "800": "0xFF009f3f",
    "900": "0xFF008e33"
  }
}
